Report
…
var_explain <- read_csv('./data/var_explain.csv')

## Rows: 75 Columns: 2
## ── Column specification ────────────────────────────────────────────────────────
## Delimiter: ","
## chr (2): name, detail
## 
## ℹ Use `spec()` to retrieve the full column specification for this data.
## ℹ Specify the column types or set `show_col_types = FALSE` to quiet this message.

var_explain

## # A tibble: 75 × 2
##    name        detail                                           
##    <chr>       <chr>                                            
##  1 surveyid    Individual Identifier                            
##  2 village     Village Identifier                               
##  3 survey_date Date of Interview (days since Jan1 of first year)
##  4 femaleres   Female respondent                                
##  5 age         Age (respondent)                                 
##  6 married     Marital status (respondent)                      
##  7 children    Number of children                               
##  8 hhsize      Household size                                   
##  9 edu         Years of education completed (respondent)        
## 10 hh_children Number of children <=18 or younger in Household  
## # … with 65 more rows
…
